bsc_fpga/pratica2/simulation/qsim/pratica2.msim.vcd
$comment
	File created using the following command:
		vcd file pratica2.msim.vcd -direction
$end
$date
	Fri Mar 09 04:58:46 2018
$end
$version
	ModelSim Version 10.1d
$end
$timescale
	1ps
$end
$scope module multiplexador2x1_4bits_vlg_vec_tst $end
$var reg 4 ! a [3:0] $end
$var reg 4 " b [3:0] $end
$var reg 1 # s $end
$var wire 1 $ y [3] $end
$var wire 1 % y [2] $end
$var wire 1 & y [1] $end
$var wire 1 ' y [0] $end
$var wire 1 ( sampler $end
$scope module i1 $end
$var wire 1 ) gnd $end
$var wire 1 * vcc $end
$var wire 1 + unknown $end
$var tri1 1 , devclrn $end
$var tri1 1 - devpor $end
$var tri1 1 . devoe $end
$var wire 1 / y[0]~output_o $end
$var wire 1 0 y[1]~output_o $end
$var wire 1 1 y[2]~output_o $end
$var wire 1 2 y[3]~output_o $end
$var wire 1 3 b[0]~input_o $end
$var wire 1 4 a[0]~input_o $end
$var wire 1 5 s~input_o $end
$var wire 1 6 y0|d~0_combout $end
$var wire 1 7 b[1]~input_o $end
$var wire 1 8 a[1]~input_o $end
$var wire 1 9 y1|d~0_combout $end
$var wire 1 : b[2]~input_o $end
$var wire 1 ; a[2]~input_o $end
$var wire 1 < y2|d~0_combout $end
$var wire 1 = b[3]~input_o $end
$var wire 1 > a[3]~input_o $end
$var wire 1 ? y3|d~0_combout $end
$upscope $end
$upscope $end
$enddefinitions $end
#0
$dumpvars
b1111 !
b0 "
0#
1'
1&
1%
1$
x(
0)
1*
x+
1,
1-
1.
1/
10
11
12
03
14
05
16
07
18
19
0:
1;
1<
0=
1>
1?
$end
#30000
1#
15
0(
0?
0<
09
06
02
01
00
0/
0$
0%
0&
0'
#60000
0#
05
1(
1?
1<
19
16
12
11
10
1/
1$
1%
1&
1'
#90000
1#
15
0(
0?
0<
09
06
02
01
00
0/
0$
0%
0&
0'
#120000
0#
05
1(
1?
1<
19
16
12
11
10
1/
1$
1%
1&
1'
#150000
1#
15
0(
0?
0<
09
06
02
01
00
0/
0$
0%
0&
0'
#180000
0#
05
1(
1?
1<
19
16
12
11
10
1/
1$
1%
1&
1'
#210000
1#
15
0(
0?
0<
09
06
02
01
00
0/
0$
0%
0&
0'
#240000
0#
05
1(
1?
1<
19
16
12
11
10
1/
1$
1%
1&
1'
#270000
1#
15
0(
0?
0<
09
06
02
01
00
0/
0$
0%
0&
0'
#300000
0#
05
1(
1?
1<
19
16
12
11
10
1/
1$
1%
1&
1'
#330000
1#
15
0(
0?
0<
09
06
02
01
00
0/
0$
0%
0&
0'
#360000
0#
05
1(
1?
1<
19
16
12
11
10
1/
1$
1%
1&
1'
#390000
1#
15
0(
0?
0<
09
06
02
01
00
0/
0$
0%
0&
0'
#420000
0#
05
1(
1?
1<
19
16
12
11
10
1/
1$
1%
1&
1'
#450000
1#
15
0(
0?
0<
09
06
02
01
00
0/
0$
0%
0&
0'
#480000
0#
05
1(
1?
1<
19
16
12
11
10
1/
1$
1%
1&
1'
#510000
1#
15
0(
0?
0<
09
06
02
01
00
0/
0$
0%
0&
0'
#540000
0#
05
1(
1?
1<
19
16
12
11
10
1/
1$
1%
1&
1'
#570000
1#
15
0(
0?
0<
09
06
02
01
00
0/
0$
0%
0&
0'
#600000
0#
05
1(
1?
1<
19
16
12
11
10
1/
1$
1%
1&
1'
#630000
1#
15
0(
0?
0<
09
06
02
01
00
0/
0$
0%
0&
0'
#660000
0#
05
1(
1?
1<
19
16
12
11
10
1/
1$
1%
1&
1'
#690000
1#
15
0(
0?
0<
09
06
02
01
00
0/
0$
0%
0&
0'
#720000
0#
05
1(
1?
1<
19
16
12
11
10
1/
1$
1%
1&
1'
#750000
1#
15
0(
0?
0<
09
06
02
01
00
0/
0$
0%
0&
0'
#780000
0#
05
1(
1?
1<
19
16
12
11
10
1/
1$
1%
1&
1'
#810000
1#
15
0(
0?
0<
09
06
02
01
00
0/
0$
0%
0&
0'
#840000
0#
05
1(
1?
1<
19
16
12
11
10
1/
1$
1%
1&
1'
#870000
1#
15
0(
0?
0<
09
06
02
01
00
0/
0$
0%
0&
0'
#900000
0#
05
1(
1?
1<
19
16
12
11
10
1/
1$
1%
1&
1'
#930000
1#
15
0(
0?
0<
09
06
02
01
00
0/
0$
0%
0&
0'
#960000
0#
05
1(
1?
1<
19
16
12
11
10
1/
1$
1%
1&
1'
#990000
1#
15
0(
0?
0<
09
06
02
01
00
0/
0$
0%
0&
0'
