bsc_fpga/Prática 3/pratica3/simulation/qsim/registrador.msim.vcd
$comment
	File created using the following command:
		vcd file registrador.msim.vcd -direction
$end
$date
	Fri Mar 16 12:18:49 2018
$end
$version
	ModelSim Version 10.1d
$end
$timescale
	1ps
$end
$scope module registrador_vlg_vec_tst $end
$var reg 1 ! clk $end
$var reg 4 " i [3:0] $end
$var reg 2 # s [1:0] $end
$var reg 1 $ shlin $end
$var reg 1 % shrin $end
$var wire 1 & q [3] $end
$var wire 1 ' q [2] $end
$var wire 1 ( q [1] $end
$var wire 1 ) q [0] $end
$var wire 1 * sampler $end
$scope module i1 $end
$var wire 1 + gnd $end
$var wire 1 , vcc $end
$var wire 1 - unknown $end
$var tri1 1 . devclrn $end
$var tri1 1 / devpor $end
$var tri1 1 0 devoe $end
$var wire 1 1 q[0]~output_o $end
$var wire 1 2 q[1]~output_o $end
$var wire 1 3 q[2]~output_o $end
$var wire 1 4 q[3]~output_o $end
$var wire 1 5 clk~input_o $end
$var wire 1 6 clk~inputclkctrl_outclk $end
$var wire 1 7 s[0]~input_o $end
$var wire 1 8 shlin~input_o $end
$var wire 1 9 shrin~input_o $end
$var wire 1 : q3|q~0_combout $end
$var wire 1 ; i[3]~input_o $end
$var wire 1 < s[1]~input_o $end
$var wire 1 = q0|q~1_combout $end
$var wire 1 > q3|q~q $end
$var wire 1 ? q2|q~0_combout $end
$var wire 1 @ i[2]~input_o $end
$var wire 1 A q2|q~q $end
$var wire 1 B q1|q~0_combout $end
$var wire 1 C i[1]~input_o $end
$var wire 1 D q1|q~q $end
$var wire 1 E q0|q~0_combout $end
$var wire 1 F i[0]~input_o $end
$var wire 1 G q0|q~q $end
$upscope $end
$upscope $end
$enddefinitions $end
#0
$dumpvars
0!
b1010 "
b10 #
1$
0%
0)
0(
0'
0&
x*
0+
1,
x-
1.
1/
10
01
02
03
04
05
06
07
18
09
0:
1;
1<
1=
0>
0?
0@
0A
0B
1C
0D
0E
0F
0G
$end
#10000
0$
1%
08
19
0*
1:
#100000
1!
15
16
1*
1>
1?
14
1&
#170000
b0 #
0<
0*
0=
#200000
0!
05
06
1*
#210000
1$
0%
18
09
0*
0:
#300000
1!
15
16
1*
#360000
b1 #
b11 #
17
1<
0*
1E
0?
1=
#400000
0!
05
06
1*
#410000
0$
1%
08
19
0*
0E
#500000
1!
15
16
1*
0>
04
0&
#600000
0!
05
06
0*
#610000
b1 #
1$
0%
0<
18
09
1*
1E
#700000
1!
15
16
0*
1D
1>
1?
12
14
1(
1&
#750000
b11 #
1<
1*
#800000
0!
05
06
0*
#810000
0$
1%
08
19
1*
0E
#820000
b10 #
07
0*
1E
1:
#850000
b0 #
0<
1*
0=
#900000
1!
15
16
0*
#920000
b1 #
17
1*
0E
1=
0:
#950000
b11 #
1<
0*
